{
    "map": 126,
    "numberWall": 2,
    "timePlay": 90,
    "star": {
        "first": 2000,
        "second": 5000,
        "third": 9000
    },
    "numberTypeMain": 5,
    "numberTypeMap": 5,
    "numberTypeRand": 52,
    "modeRequest": {
        "modeRequest": false,
        "first": {
            "numberNode": 0,
            "numberRequest": 0
        },
        "second": {
            "numberNode": 0,
            "numberRequest": 0
        },
        "third": {
            "numberNode": 0,
            "numberRequest": 0
        }
    },
    "modeFindStar": {
        "modeFindStar": false
    },
    "tileList": [
        {
            "Id": 0,
            "number": 0,
            "numType": 0
        },
        {
            "Id": 0,
            "number": 0,
            "numType": 0
        },
        {
            "Id": 0,
            "number": 0,
            "numType": 0
        },
        {
            "Id": 0,
            "number": 0,
            "numType": 0
        },
        {
            "Id": 0,
            "number": 0,
            "numType": 0
        },
        {
            "Id": 0,
            "number": 0,
            "numType": 0
        },
        {
            "Id": 0,
            "number": 0,
            "numType": 0
        },
        {
            "Id": 0,
            "number": 0,
            "numType": 0
        },
        {
            "Id": 0,
            "number": 0,
            "numType": 0
        },
        {
            "Id": 0,
            "number": 0,
            "numType": 0
        },
        {
            "Id": 0,
            "number": 0,
            "numType": 0
        },
        {
            "Id": 4,
            "number": -1,
            "numType": 0
        },
        {
            "Id": -1,
            "number": 0,
            "numType": 0
        },
        {
            "Id": 4,
            "number": -1,
            "numType": 0
        },
        {
            "Id": 4,
            "number": -1,
            "numType": 0
        },
        {
            "Id": 4,
            "number": -1,
            "numType": 0
        },
        {
            "Id": 4,
            "number": -1,
            "numType": 0
        },
        {
            "Id": -1,
            "number": 0,
            "numType": 0
        },
        {
            "Id": 4,
            "number": -1,
            "numType": 0
        },
        {
            "Id": 0,
            "number": 0,
            "numType": 0
        },
        {
            "Id": 0,
            "number": 0,
            "numType": 0
        },
        {
            "Id": 4,
            "number": 0,
            "numType": 0
        },
        {
            "Id": 4,
            "number": -1,
            "numType": 0
        },
        {
            "Id": -1,
            "number": 0,
            "numType": 0
        },
        {
            "Id": 4,
            "number": -1,
            "numType": 0
        },
        {
            "Id": 4,
            "number": -1,
            "numType": 0
        },
        {
            "Id": -1,
            "number": 0,
            "numType": 0
        },
        {
            "Id": 4,
            "number": -1,
            "numType": 0
        },
        {
            "Id": 4,
            "number": 0,
            "numType": 0
        },
        {
            "Id": 0,
            "number": 0,
            "numType": 0
        },
        {
            "Id": 0,
            "number": 0,
            "numType": 0
        },
        {
            "Id": 4,
            "number": -1,
            "numType": 0
        },
        {
            "Id": 4,
            "number": 0,
            "numType": 0
        },
        {
            "Id": 4,
            "number": -1,
            "numType": 0
        },
        {
            "Id": -1,
            "number": 0,
            "numType": 0
        },
        {
            "Id": -1,
            "number": 0,
            "numType": 0
        },
        {
            "Id": 4,
            "number": -1,
            "numType": 0
        },
        {
            "Id": 4,
            "number": 0,
            "numType": 0
        },
        {
            "Id": 4,
            "number": -1,
            "numType": 0
        },
        {
            "Id": 0,
            "number": 0,
            "numType": 0
        },
        {
            "Id": 0,
            "number": 0,
            "numType": 0
        },
        {
            "Id": 4,
            "number": -1,
            "numType": 0
        },
        {
            "Id": 4,
            "number": -1,
            "numType": 0
        },
        {
            "Id": 4,
            "number": 0,
            "numType": 0
        },
        {
            "Id": 4,
            "number": -1,
            "numType": 0
        },
        {
            "Id": 4,
            "number": -1,
            "numType": 0
        },
        {
            "Id": 4,
            "number": 0,
            "numType": 0
        },
        {
            "Id": 4,
            "number": -1,
            "numType": 0
        },
        {
            "Id": 4,
            "number": -1,
            "numType": 0
        },
        {
            "Id": 0,
            "number": 0,
            "numType": 0
        },
        {
            "Id": 0,
            "number": 0,
            "numType": 0
        },
        {
            "Id": 4,
            "number": -1,
            "numType": 0
        },
        {
            "Id": 4,
            "number": -1,
            "numType": 0
        },
        {
            "Id": 4,
            "number": -1,
            "numType": 0
        },
        {
            "Id": 4,
            "number": 0,
            "numType": 0
        },
        {
            "Id": 4,
            "number": 0,
            "numType": 0
        },
        {
            "Id": 4,
            "number": -1,
            "numType": 0
        },
        {
            "Id": 4,
            "number": -1,
            "numType": 0
        },
        {
            "Id": 4,
            "number": -1,
            "numType": 0
        },
        {
            "Id": 0,
            "number": 0,
            "numType": 0
        },
        {
            "Id": 0,
            "number": 0,
            "numType": 0
        },
        {
            "Id": 4,
            "number": -1,
            "numType": 0
        },
        {
            "Id": 4,
            "number": -1,
            "numType": 0
        },
        {
            "Id": 4,
            "number": -1,
            "numType": 0
        },
        {
            "Id": 14,
            "number": 0,
            "numType": 2
        },
        {
            "Id": 4,
            "number": 0,
            "numType": 0
        },
        {
            "Id": 4,
            "number": -1,
            "numType": 0
        },
        {
            "Id": 4,
            "number": -1,
            "numType": 0
        },
        {
            "Id": 4,
            "number": -1,
            "numType": 0
        },
        {
            "Id": 0,
            "number": 0,
            "numType": 0
        },
        {
            "Id": 0,
            "number": 0,
            "numType": 0
        },
        {
            "Id": 4,
            "number": -1,
            "numType": 0
        },
        {
            "Id": 4,
            "number": -1,
            "numType": 0
        },
        {
            "Id": 4,
            "number": 0,
            "numType": 0
        },
        {
            "Id": 4,
            "number": -1,
            "numType": 0
        },
        {
            "Id": 4,
            "number": -1,
            "numType": 0
        },
        {
            "Id": 4,
            "number": 0,
            "numType": 0
        },
        {
            "Id": 4,
            "number": -1,
            "numType": 0
        },
        {
            "Id": 4,
            "number": -1,
            "numType": 0
        },
        {
            "Id": 0,
            "number": 0,
            "numType": 0
        },
        {
            "Id": 0,
            "number": 0,
            "numType": 0
        },
        {
            "Id": 4,
            "number": -1,
            "numType": 0
        },
        {
            "Id": 4,
            "number": 0,
            "numType": 0
        },
        {
            "Id": 4,
            "number": -1,
            "numType": 0
        },
        {
            "Id": -1,
            "number": 0,
            "numType": 1
        },
        {
            "Id": -1,
            "number": 0,
            "numType": 1
        },
        {
            "Id": 4,
            "number": -1,
            "numType": 0
        },
        {
            "Id": 4,
            "number": 0,
            "numType": 0
        },
        {
            "Id": 4,
            "number": -1,
            "numType": 0
        },
        {
            "Id": 0,
            "number": 0,
            "numType": 0
        },
        {
            "Id": 0,
            "number": 0,
            "numType": 0
        },
        {
            "Id": 4,
            "number": 0,
            "numType": 0
        },
        {
            "Id": 4,
            "number": -1,
            "numType": 0
        },
        {
            "Id": -1,
            "number": 0,
            "numType": 1
        },
        {
            "Id": 4,
            "number": -1,
            "numType": 0
        },
        {
            "Id": 4,
            "number": -1,
            "numType": 0
        },
        {
            "Id": -1,
            "number": 0,
            "numType": 1
        },
        {
            "Id": 4,
            "number": -1,
            "numType": 0
        },
        {
            "Id": 4,
            "number": 0,
            "numType": 0
        },
        {
            "Id": 0,
            "number": 0,
            "numType": 0
        },
        {
            "Id": 0,
            "number": 0,
            "numType": 0
        },
        {
            "Id": 4,
            "number": -1,
            "numType": 0
        },
        {
            "Id": -1,
            "number": 0,
            "numType": 1
        },
        {
            "Id": 4,
            "number": -1,
            "numType": 0
        },
        {
            "Id": 4,
            "number": -1,
            "numType": 0
        },
        {
            "Id": 4,
            "number": -1,
            "numType": 0
        },
        {
            "Id": 4,
            "number": -1,
            "numType": 0
        },
        {
            "Id": -1,
            "number": 0,
            "numType": 1
        },
        {
            "Id": 4,
            "number": -1,
            "numType": 0
        },
        {
            "Id": 0,
            "number": 0,
            "numType": 0
        },
        {
            "Id": 0,
            "number": 0,
            "numType": 0
        },
        {
            "Id": 0,
            "number": 0,
            "numType": 0
        },
        {
            "Id": 0,
            "number": 0,
            "numType": 0
        },
        {
            "Id": 0,
            "number": 0,
            "numType": 0
        },
        {
            "Id": 0,
            "number": 0,
            "numType": 0
        },
        {
            "Id": 0,
            "number": 0,
            "numType": 0
        },
        {
            "Id": 0,
            "number": 0,
            "numType": 0
        },
        {
            "Id": 0,
            "number": 0,
            "numType": 0
        },
        {
            "Id": 0,
            "number": 0,
            "numType": 0
        },
        {
            "Id": 0,
            "number": 0,
            "numType": 0
        }
    ],
    "EAList": [
        {
            "type": 2,
            "timeStart": 1,
            "timeRemain": 0
        },
        {
            "type": 2,
            "timeStart": 45,
            "timeRemain": 0
        },
        {
            "type": 2,
            "timeStart": 90,
            "timeRemain": 0
        }
    ]
}