{
    "map": 33,
    "numberWall": 1,
    "timePlay": 90,
    "star": {
        "first": 2000,
        "second": 4000,
        "third": 6000
    },
    "numberTypeMain": 5,
    "numberTypeMap": 4,
    "numberTypeRand": 36,
    "tileList": [
        {
            "Id": 0,
            "number": 0,
            "numType": 0
        },
        {
            "Id": 0,
            "number": 0,
            "numType": 0
        },
        {
            "Id": 0,
            "number": 0,
            "numType": 0
        },
        {
            "Id": 0,
            "number": 0,
            "numType": 0
        },
        {
            "Id": 0,
            "number": 0,
            "numType": 0
        },
        {
            "Id": 0,
            "number": 0,
            "numType": 0
        },
        {
            "Id": 0,
            "number": 0,
            "numType": 0
        },
        {
            "Id": 0,
            "number": 0,
            "numType": 0
        },
        {
            "Id": 0,
            "number": 0,
            "numType": 0
        },
        {
            "Id": 0,
            "number": 0,
            "numType": 0
        },
        {
            "Id": 0,
            "number": 0,
            "numType": 0
        },
        {
            "Id": 4,
            "number": -1,
            "numType": 0
        },
        {
            "Id": 15,
            "number": 0,
            "numType": 4
        },
        {
            "Id": 4,
            "number": -1,
            "numType": 0
        },
        {
            "Id": 4,
            "number": -1,
            "numType": 0
        },
        {
            "Id": 4,
            "number": 0,
            "numType": 0
        },
        {
            "Id": 4,
            "number": 0,
            "numType": 0
        },
        {
            "Id": 15,
            "number": 0,
            "numType": 4
        },
        {
            "Id": 4,
            "number": -1,
            "numType": 0
        },
        {
            "Id": 0,
            "number": 0,
            "numType": 0
        },
        {
            "Id": 0,
            "number": 0,
            "numType": 0
        },
        {
            "Id": 4,
            "number": -1,
            "numType": 0
        },
        {
            "Id": 15,
            "number": 0,
            "numType": 7
        },
        {
            "Id": 5,
            "number": -1,
            "numType": 0
        },
        {
            "Id": 6,
            "number": -1,
            "numType": 0
        },
        {
            "Id": 5,
            "number": -1,
            "numType": 0
        },
        {
            "Id": 4,
            "number": -1,
            "numType": 0
        },
        {
            "Id": 15,
            "number": 0,
            "numType": 7
        },
        {
            "Id": 4,
            "number": -1,
            "numType": 0
        },
        {
            "Id": 0,
            "number": 0,
            "numType": 0
        },
        {
            "Id": 0,
            "number": 0,
            "numType": 0
        },
        {
            "Id": 4,
            "number": -1,
            "numType": 0
        },
        {
            "Id": 15,
            "number": 0,
            "numType": 7
        },
        {
            "Id": 4,
            "number": 0,
            "numType": 0
        },
        {
            "Id": 4,
            "number": 0,
            "numType": 0
        },
        {
            "Id": 4,
            "number": -1,
            "numType": 0
        },
        {
            "Id": 4,
            "number": -1,
            "numType": 0
        },
        {
            "Id": 15,
            "number": 0,
            "numType": 7
        },
        {
            "Id": 4,
            "number": -1,
            "numType": 0
        },
        {
            "Id": 0,
            "number": 0,
            "numType": 0
        },
        {
            "Id": 0,
            "number": 0,
            "numType": 0
        },
        {
            "Id": 13,
            "number": 0,
            "numType": 0
        },
        {
            "Id": 15,
            "number": 0,
            "numType": 7
        },
        {
            "Id": 4,
            "number": -1,
            "numType": 0
        },
        {
            "Id": 4,
            "number": -1,
            "numType": 0
        },
        {
            "Id": -1,
            "number": 0,
            "numType": 4
        },
        {
            "Id": -1,
            "number": 0,
            "numType": 0
        },
        {
            "Id": 15,
            "number": 0,
            "numType": 7
        },
        {
            "Id": 13,
            "number": 0,
            "numType": 0
        },
        {
            "Id": 0,
            "number": 0,
            "numType": 0
        },
        {
            "Id": 0,
            "number": 0,
            "numType": 0
        },
        {
            "Id": 13,
            "number": 0,
            "numType": 0
        },
        {
            "Id": 15,
            "number": 0,
            "numType": 7
        },
        {
            "Id": -1,
            "number": 0,
            "numType": 2
        },
        {
            "Id": 15,
            "number": 0,
            "numType": 8
        },
        {
            "Id": 15,
            "number": 0,
            "numType": 3
        },
        {
            "Id": -1,
            "number": 0,
            "numType": 2
        },
        {
            "Id": 15,
            "number": 0,
            "numType": 7
        },
        {
            "Id": 13,
            "number": 0,
            "numType": 0
        },
        {
            "Id": 0,
            "number": 0,
            "numType": 0
        },
        {
            "Id": 0,
            "number": 0,
            "numType": 0
        },
        {
            "Id": 4,
            "number": -1,
            "numType": 0
        },
        {
            "Id": 15,
            "number": 0,
            "numType": 7
        },
        {
            "Id": 4,
            "number": 0,
            "numType": 0
        },
        {
            "Id": 4,
            "number": 0,
            "numType": 0
        },
        {
            "Id": 4,
            "number": -1,
            "numType": 0
        },
        {
            "Id": 4,
            "number": -1,
            "numType": 0
        },
        {
            "Id": 15,
            "number": 0,
            "numType": 7
        },
        {
            "Id": 4,
            "number": -1,
            "numType": 0
        },
        {
            "Id": 0,
            "number": 0,
            "numType": 0
        },
        {
            "Id": 0,
            "number": 0,
            "numType": 0
        },
        {
            "Id": 4,
            "number": -1,
            "numType": 0
        },
        {
            "Id": 15,
            "number": 0,
            "numType": 7
        },
        {
            "Id": 4,
            "number": -1,
            "numType": 0
        },
        {
            "Id": 4,
            "number": -1,
            "numType": 0
        },
        {
            "Id": 4,
            "number": 0,
            "numType": 0
        },
        {
            "Id": 4,
            "number": 0,
            "numType": 0
        },
        {
            "Id": 15,
            "number": 0,
            "numType": 7
        },
        {
            "Id": 4,
            "number": -1,
            "numType": 0
        },
        {
            "Id": 0,
            "number": 0,
            "numType": 0
        },
        {
            "Id": 0,
            "number": 0,
            "numType": 0
        },
        {
            "Id": 4,
            "number": -1,
            "numType": 0
        },
        {
            "Id": 15,
            "number": 0,
            "numType": 7
        },
        {
            "Id": 5,
            "number": -1,
            "numType": 0
        },
        {
            "Id": 6,
            "number": -1,
            "numType": 0
        },
        {
            "Id": 5,
            "number": -1,
            "numType": 0
        },
        {
            "Id": 4,
            "number": -1,
            "numType": 0
        },
        {
            "Id": 15,
            "number": 0,
            "numType": 7
        },
        {
            "Id": 4,
            "number": -1,
            "numType": 0
        },
        {
            "Id": 0,
            "number": 0,
            "numType": 0
        },
        {
            "Id": 0,
            "number": 0,
            "numType": 0
        },
        {
            "Id": 13,
            "number": 0,
            "numType": 2
        },
        {
            "Id": 15,
            "number": 0,
            "numType": 0
        },
        {
            "Id": -1,
            "number": 0,
            "numType": 1
        },
        {
            "Id": -1,
            "number": 0,
            "numType": 3
        },
        {
            "Id": 4,
            "number": -1,
            "numType": 0
        },
        {
            "Id": 4,
            "number": -1,
            "numType": 0
        },
        {
            "Id": 15,
            "number": 0,
            "numType": 0
        },
        {
            "Id": 13,
            "number": 0,
            "numType": 2
        },
        {
            "Id": 0,
            "number": 0,
            "numType": 0
        },
        {
            "Id": 0,
            "number": 0,
            "numType": 0
        },
        {
            "Id": 13,
            "number": 0,
            "numType": 2
        },
        {
            "Id": -1,
            "number": 0,
            "numType": 3
        },
        {
            "Id": 4,
            "number": -1,
            "numType": 0
        },
        {
            "Id": 4,
            "number": -1,
            "numType": 0
        },
        {
            "Id": 4,
            "number": -1,
            "numType": 0
        },
        {
            "Id": 4,
            "number": -1,
            "numType": 0
        },
        {
            "Id": -1,
            "number": 0,
            "numType": 3
        },
        {
            "Id": 13,
            "number": 0,
            "numType": 2
        },
        {
            "Id": 0,
            "number": 0,
            "numType": 0
        },
        {
            "Id": 0,
            "number": 0,
            "numType": 0
        },
        {
            "Id": 0,
            "number": 0,
            "numType": 0
        },
        {
            "Id": 0,
            "number": 0,
            "numType": 0
        },
        {
            "Id": 0,
            "number": 0,
            "numType": 0
        },
        {
            "Id": 0,
            "number": 0,
            "numType": 0
        },
        {
            "Id": 0,
            "number": 0,
            "numType": 0
        },
        {
            "Id": 0,
            "number": 0,
            "numType": 0
        },
        {
            "Id": 0,
            "number": 0,
            "numType": 0
        },
        {
            "Id": 0,
            "number": 0,
            "numType": 0
        },
        {
            "Id": 0,
            "number": 0,
            "numType": 0
        }
    ],
    "EAList": [
        {
            "type": 0,
            "timeStart": 10,
            "timeRemain": 20
        },
        {
            "type": 1,
            "timeStart": 40,
            "timeRemain": 60
        }
    ]
}