{
    "map": 61,
    "numberWall": 2,
    "timePlay": 90,
    "star": {
        "first": 4000,
        "second": 9000,
        "third": 13500
    },
    "numberTypeMain": 5,
    "numberTypeMap": 4,
    "numberTypeRand": 40,
    "modeRequest": {
        "modeRequest": false,
        "first": {
            "numberNode": 0,
            "numberRequest": 0
        },
        "second": {
            "numberNode": 0,
            "numberRequest": 0
        },
        "third": {
            "numberNode": 0,
            "numberRequest": 0
        }
    },
    "modeFindStar": {
        "modeFindStar": false
    },
    "tileList": [
        {
            "Id": 0,
            "number": 0,
            "numType": 0
        },
        {
            "Id": 0,
            "number": 0,
            "numType": 0
        },
        {
            "Id": 0,
            "number": 0,
            "numType": 0
        },
        {
            "Id": 0,
            "number": 0,
            "numType": 0
        },
        {
            "Id": 0,
            "number": 0,
            "numType": 0
        },
        {
            "Id": 0,
            "number": 0,
            "numType": 0
        },
        {
            "Id": 0,
            "number": 0,
            "numType": 0
        },
        {
            "Id": 0,
            "number": 0,
            "numType": 0
        },
        {
            "Id": 0,
            "number": 0,
            "numType": 0
        },
        {
            "Id": 0,
            "number": 0,
            "numType": 0
        },
        {
            "Id": 0,
            "number": 0,
            "numType": 0
        },
        {
            "Id": 4,
            "number": -1,
            "numType": 0
        },
        {
            "Id": 14,
            "number": 0,
            "numType": 0
        },
        {
            "Id": 4,
            "number": 0,
            "numType": 0
        },
        {
            "Id": 4,
            "number": 0,
            "numType": 0
        },
        {
            "Id": 4,
            "number": -1,
            "numType": 0
        },
        {
            "Id": 4,
            "number": -1,
            "numType": 0
        },
        {
            "Id": 4,
            "number": -1,
            "numType": 0
        },
        {
            "Id": 4,
            "number": -1,
            "numType": 0
        },
        {
            "Id": 0,
            "number": 0,
            "numType": 0
        },
        {
            "Id": 0,
            "number": 0,
            "numType": 0
        },
        {
            "Id": 4,
            "number": -1,
            "numType": 0
        },
        {
            "Id": 4,
            "number": 0,
            "numType": 0
        },
        {
            "Id": 4,
            "number": 0,
            "numType": 0
        },
        {
            "Id": 4,
            "number": 0,
            "numType": 0
        },
        {
            "Id": 4,
            "number": -1,
            "numType": 0
        },
        {
            "Id": 4,
            "number": -1,
            "numType": 0
        },
        {
            "Id": 4,
            "number": -1,
            "numType": 0
        },
        {
            "Id": 4,
            "number": -1,
            "numType": 0
        },
        {
            "Id": 0,
            "number": 0,
            "numType": 0
        },
        {
            "Id": 0,
            "number": 0,
            "numType": 0
        },
        {
            "Id": 4,
            "number": -1,
            "numType": 0
        },
        {
            "Id": 4,
            "number": -1,
            "numType": 0
        },
        {
            "Id": 4,
            "number": -1,
            "numType": 0
        },
        {
            "Id": 4,
            "number": -1,
            "numType": 0
        },
        {
            "Id": 4,
            "number": -1,
            "numType": 0
        },
        {
            "Id": 4,
            "number": -1,
            "numType": 0
        },
        {
            "Id": 10,
            "number": -1,
            "numType": 0
        },
        {
            "Id": 4,
            "number": -1,
            "numType": 0
        },
        {
            "Id": 0,
            "number": 0,
            "numType": 0
        },
        {
            "Id": 0,
            "number": 0,
            "numType": 0
        },
        {
            "Id": 4,
            "number": -1,
            "numType": 0
        },
        {
            "Id": 4,
            "number": -1,
            "numType": 0
        },
        {
            "Id": 4,
            "number": -1,
            "numType": 0
        },
        {
            "Id": 4,
            "number": -1,
            "numType": 0
        },
        {
            "Id": 4,
            "number": -1,
            "numType": 0
        },
        {
            "Id": 4,
            "number": -1,
            "numType": 0
        },
        {
            "Id": 4,
            "number": -1,
            "numType": 0
        },
        {
            "Id": 4,
            "number": -1,
            "numType": 0
        },
        {
            "Id": 0,
            "number": 0,
            "numType": 0
        },
        {
            "Id": 0,
            "number": 0,
            "numType": 0
        },
        {
            "Id": 15,
            "number": 0,
            "numType": 5
        },
        {
            "Id": 15,
            "number": 0,
            "numType": 3
        },
        {
            "Id": 15,
            "number": 0,
            "numType": 3
        },
        {
            "Id": 15,
            "number": 0,
            "numType": 3
        },
        {
            "Id": 15,
            "number": 0,
            "numType": 3
        },
        {
            "Id": 15,
            "number": 0,
            "numType": 3
        },
        {
            "Id": 15,
            "number": 0,
            "numType": 3
        },
        {
            "Id": 15,
            "number": 0,
            "numType": 6
        },
        {
            "Id": 0,
            "number": 0,
            "numType": 0
        },
        {
            "Id": 0,
            "number": 0,
            "numType": 0
        },
        {
            "Id": 15,
            "number": 0,
            "numType": 7
        },
        {
            "Id": 4,
            "number": -1,
            "numType": 0
        },
        {
            "Id": 5,
            "number": -1,
            "numType": 0
        },
        {
            "Id": 4,
            "number": -1,
            "numType": 0
        },
        {
            "Id": 5,
            "number": -1,
            "numType": 0
        },
        {
            "Id": 4,
            "number": -1,
            "numType": 0
        },
        {
            "Id": 5,
            "number": -1,
            "numType": 0
        },
        {
            "Id": 15,
            "number": 0,
            "numType": 7
        },
        {
            "Id": 0,
            "number": 0,
            "numType": 0
        },
        {
            "Id": 0,
            "number": 0,
            "numType": 0
        },
        {
            "Id": 15,
            "number": 0,
            "numType": 1
        },
        {
            "Id": 15,
            "number": 0,
            "numType": 3
        },
        {
            "Id": 15,
            "number": 0,
            "numType": 3
        },
        {
            "Id": 15,
            "number": 0,
            "numType": 3
        },
        {
            "Id": 15,
            "number": 0,
            "numType": 3
        },
        {
            "Id": 15,
            "number": 0,
            "numType": 3
        },
        {
            "Id": 15,
            "number": 0,
            "numType": 6
        },
        {
            "Id": 15,
            "number": 0,
            "numType": 7
        },
        {
            "Id": 0,
            "number": 0,
            "numType": 0
        },
        {
            "Id": 0,
            "number": 0,
            "numType": 0
        },
        {
            "Id": 5,
            "number": -1,
            "numType": 0
        },
        {
            "Id": 4,
            "number": -1,
            "numType": 0
        },
        {
            "Id": 5,
            "number": -1,
            "numType": 0
        },
        {
            "Id": 4,
            "number": -1,
            "numType": 0
        },
        {
            "Id": 5,
            "number": -1,
            "numType": 0
        },
        {
            "Id": 4,
            "number": -1,
            "numType": 0
        },
        {
            "Id": 15,
            "number": 0,
            "numType": 7
        },
        {
            "Id": 15,
            "number": 0,
            "numType": 7
        },
        {
            "Id": 0,
            "number": 0,
            "numType": 0
        },
        {
            "Id": 0,
            "number": 0,
            "numType": 0
        },
        {
            "Id": 4,
            "number": -1,
            "numType": 0
        },
        {
            "Id": 15,
            "number": 0,
            "numType": 5
        },
        {
            "Id": 15,
            "number": 0,
            "numType": 3
        },
        {
            "Id": 15,
            "number": 0,
            "numType": 3
        },
        {
            "Id": 15,
            "number": 0,
            "numType": 3
        },
        {
            "Id": 15,
            "number": 0,
            "numType": 3
        },
        {
            "Id": 15,
            "number": 0,
            "numType": 2
        },
        {
            "Id": 15,
            "number": 0,
            "numType": 7
        },
        {
            "Id": 0,
            "number": 0,
            "numType": 0
        },
        {
            "Id": 0,
            "number": 0,
            "numType": 0
        },
        {
            "Id": 4,
            "number": -1,
            "numType": 0
        },
        {
            "Id": 15,
            "number": 0,
            "numType": 1
        },
        {
            "Id": 15,
            "number": 0,
            "numType": 3
        },
        {
            "Id": 15,
            "number": 0,
            "numType": 3
        },
        {
            "Id": 15,
            "number": 0,
            "numType": 3
        },
        {
            "Id": 15,
            "number": 0,
            "numType": 3
        },
        {
            "Id": 15,
            "number": 0,
            "numType": 3
        },
        {
            "Id": 15,
            "number": 0,
            "numType": 2
        },
        {
            "Id": 0,
            "number": 0,
            "numType": 0
        },
        {
            "Id": 0,
            "number": 0,
            "numType": 0
        },
        {
            "Id": 0,
            "number": 0,
            "numType": 0
        },
        {
            "Id": 0,
            "number": 0,
            "numType": 0
        },
        {
            "Id": 0,
            "number": 0,
            "numType": 0
        },
        {
            "Id": 0,
            "number": 0,
            "numType": 0
        },
        {
            "Id": 0,
            "number": 0,
            "numType": 0
        },
        {
            "Id": 0,
            "number": 0,
            "numType": 0
        },
        {
            "Id": 0,
            "number": 0,
            "numType": 0
        },
        {
            "Id": 0,
            "number": 0,
            "numType": 0
        },
        {
            "Id": 0,
            "number": 0,
            "numType": 0
        }
    ],
    "EAList": []
}