{
    "map": 68,
    "numberWall": 2,
    "timePlay": 90,
    "star": {
        "first": 3500,
        "second": 8000,
        "third": 12000
    },
    "numberTypeMain": 5,
    "numberTypeMap": 4,
    "numberTypeRand": 40,
    "modeRequest": {
        "modeRequest": false,
        "first": {
            "numberNode": 0,
            "numberRequest": 0
        },
        "second": {
            "numberNode": 0,
            "numberRequest": 0
        },
        "third": {
            "numberNode": 0,
            "numberRequest": 0
        }
    },
    "modeFindStar": {
        "modeFindStar": false
    },
    "tileList": [
        {
            "Id": 0,
            "number": 0,
            "numType": 0
        },
        {
            "Id": 0,
            "number": 0,
            "numType": 0
        },
        {
            "Id": 0,
            "number": 0,
            "numType": 0
        },
        {
            "Id": 0,
            "number": 0,
            "numType": 0
        },
        {
            "Id": 0,
            "number": 0,
            "numType": 0
        },
        {
            "Id": 0,
            "number": 0,
            "numType": 0
        },
        {
            "Id": 0,
            "number": 0,
            "numType": 0
        },
        {
            "Id": 0,
            "number": 0,
            "numType": 0
        },
        {
            "Id": 0,
            "number": 0,
            "numType": 0
        },
        {
            "Id": 0,
            "number": 0,
            "numType": 0
        },
        {
            "Id": 0,
            "number": 0,
            "numType": 0
        },
        {
            "Id": -1,
            "number": 0,
            "numType": 0
        },
        {
            "Id": -1,
            "number": 0,
            "numType": 0
        },
        {
            "Id": 4,
            "number": 0,
            "numType": 0
        },
        {
            "Id": 4,
            "number": 0,
            "numType": 0
        },
        {
            "Id": 4,
            "number": 0,
            "numType": 0
        },
        {
            "Id": 4,
            "number": 0,
            "numType": 0
        },
        {
            "Id": -1,
            "number": 0,
            "numType": 0
        },
        {
            "Id": -1,
            "number": 0,
            "numType": 0
        },
        {
            "Id": 0,
            "number": 0,
            "numType": 0
        },
        {
            "Id": 0,
            "number": 0,
            "numType": 0
        },
        {
            "Id": -1,
            "number": 0,
            "numType": 0
        },
        {
            "Id": 4,
            "number": -1,
            "numType": 0
        },
        {
            "Id": 4,
            "number": -1,
            "numType": 0
        },
        {
            "Id": 4,
            "number": -1,
            "numType": 0
        },
        {
            "Id": 4,
            "number": -1,
            "numType": 0
        },
        {
            "Id": 4,
            "number": -1,
            "numType": 0
        },
        {
            "Id": 4,
            "number": -1,
            "numType": 0
        },
        {
            "Id": -1,
            "number": 0,
            "numType": 0
        },
        {
            "Id": 0,
            "number": 0,
            "numType": 0
        },
        {
            "Id": 0,
            "number": 0,
            "numType": 0
        },
        {
            "Id": 13,
            "number": 0,
            "numType": 0
        },
        {
            "Id": 4,
            "number": -1,
            "numType": 0
        },
        {
            "Id": 15,
            "number": 0,
            "numType": 5
        },
        {
            "Id": 15,
            "number": 0,
            "numType": 3
        },
        {
            "Id": 15,
            "number": 0,
            "numType": 3
        },
        {
            "Id": 15,
            "number": 0,
            "numType": 6
        },
        {
            "Id": 4,
            "number": -1,
            "numType": 0
        },
        {
            "Id": 13,
            "number": 0,
            "numType": 0
        },
        {
            "Id": 0,
            "number": 0,
            "numType": 0
        },
        {
            "Id": 0,
            "number": 0,
            "numType": 0
        },
        {
            "Id": 13,
            "number": 0,
            "numType": 0
        },
        {
            "Id": 4,
            "number": -1,
            "numType": 0
        },
        {
            "Id": 15,
            "number": 0,
            "numType": 0
        },
        {
            "Id": 4,
            "number": -1,
            "numType": 0
        },
        {
            "Id": 4,
            "number": -1,
            "numType": 0
        },
        {
            "Id": 15,
            "number": 0,
            "numType": 0
        },
        {
            "Id": 4,
            "number": -1,
            "numType": 0
        },
        {
            "Id": 13,
            "number": 0,
            "numType": 0
        },
        {
            "Id": 0,
            "number": 0,
            "numType": 0
        },
        {
            "Id": 0,
            "number": 0,
            "numType": 0
        },
        {
            "Id": 4,
            "number": -1,
            "numType": 0
        },
        {
            "Id": 10,
            "number": -1,
            "numType": 0
        },
        {
            "Id": 4,
            "number": -1,
            "numType": 0
        },
        {
            "Id": 4,
            "number": -1,
            "numType": 0
        },
        {
            "Id": 10,
            "number": -1,
            "numType": 0
        },
        {
            "Id": 4,
            "number": -1,
            "numType": 0
        },
        {
            "Id": 10,
            "number": -1,
            "numType": 0
        },
        {
            "Id": 4,
            "number": -1,
            "numType": 0
        },
        {
            "Id": 0,
            "number": 0,
            "numType": 0
        },
        {
            "Id": 0,
            "number": 0,
            "numType": 0
        },
        {
            "Id": 4,
            "number": -1,
            "numType": 0
        },
        {
            "Id": 4,
            "number": -1,
            "numType": 0
        },
        {
            "Id": 4,
            "number": -1,
            "numType": 0
        },
        {
            "Id": 4,
            "number": -1,
            "numType": 0
        },
        {
            "Id": 4,
            "number": -1,
            "numType": 0
        },
        {
            "Id": 4,
            "number": -1,
            "numType": 0
        },
        {
            "Id": 4,
            "number": -1,
            "numType": 0
        },
        {
            "Id": 4,
            "number": -1,
            "numType": 0
        },
        {
            "Id": 0,
            "number": 0,
            "numType": 0
        },
        {
            "Id": 0,
            "number": 0,
            "numType": 0
        },
        {
            "Id": 13,
            "number": 0,
            "numType": 0
        },
        {
            "Id": 4,
            "number": -1,
            "numType": 0
        },
        {
            "Id": 15,
            "number": 0,
            "numType": 4
        },
        {
            "Id": 4,
            "number": -1,
            "numType": 0
        },
        {
            "Id": 4,
            "number": -1,
            "numType": 0
        },
        {
            "Id": 15,
            "number": 0,
            "numType": 4
        },
        {
            "Id": 4,
            "number": -1,
            "numType": 0
        },
        {
            "Id": 13,
            "number": 0,
            "numType": 0
        },
        {
            "Id": 0,
            "number": 0,
            "numType": 0
        },
        {
            "Id": 0,
            "number": 0,
            "numType": 0
        },
        {
            "Id": 13,
            "number": 0,
            "numType": 0
        },
        {
            "Id": 4,
            "number": -1,
            "numType": 0
        },
        {
            "Id": 15,
            "number": 0,
            "numType": 1
        },
        {
            "Id": 15,
            "number": 0,
            "numType": 3
        },
        {
            "Id": 15,
            "number": 0,
            "numType": 3
        },
        {
            "Id": 15,
            "number": 0,
            "numType": 2
        },
        {
            "Id": 4,
            "number": -1,
            "numType": 0
        },
        {
            "Id": 13,
            "number": 0,
            "numType": 0
        },
        {
            "Id": 0,
            "number": 0,
            "numType": 0
        },
        {
            "Id": 0,
            "number": 0,
            "numType": 0
        },
        {
            "Id": -1,
            "number": 0,
            "numType": 0
        },
        {
            "Id": 4,
            "number": -1,
            "numType": 0
        },
        {
            "Id": 4,
            "number": -1,
            "numType": 0
        },
        {
            "Id": 4,
            "number": -1,
            "numType": 0
        },
        {
            "Id": 4,
            "number": -1,
            "numType": 0
        },
        {
            "Id": 4,
            "number": -1,
            "numType": 0
        },
        {
            "Id": 4,
            "number": -1,
            "numType": 0
        },
        {
            "Id": -1,
            "number": 0,
            "numType": 0
        },
        {
            "Id": 0,
            "number": 0,
            "numType": 0
        },
        {
            "Id": 0,
            "number": 0,
            "numType": 0
        },
        {
            "Id": -1,
            "number": 0,
            "numType": 0
        },
        {
            "Id": -1,
            "number": 0,
            "numType": 0
        },
        {
            "Id": 4,
            "number": 0,
            "numType": 0
        },
        {
            "Id": 4,
            "number": 0,
            "numType": 0
        },
        {
            "Id": 4,
            "number": 0,
            "numType": 0
        },
        {
            "Id": 4,
            "number": 0,
            "numType": 0
        },
        {
            "Id": -1,
            "number": 0,
            "numType": 0
        },
        {
            "Id": -1,
            "number": 0,
            "numType": 0
        },
        {
            "Id": 0,
            "number": 0,
            "numType": 0
        },
        {
            "Id": 0,
            "number": 0,
            "numType": 0
        },
        {
            "Id": 0,
            "number": 0,
            "numType": 0
        },
        {
            "Id": 0,
            "number": 0,
            "numType": 0
        },
        {
            "Id": 0,
            "number": 0,
            "numType": 0
        },
        {
            "Id": 0,
            "number": 0,
            "numType": 0
        },
        {
            "Id": 0,
            "number": 0,
            "numType": 0
        },
        {
            "Id": 0,
            "number": 0,
            "numType": 0
        },
        {
            "Id": 0,
            "number": 0,
            "numType": 0
        },
        {
            "Id": 0,
            "number": 0,
            "numType": 0
        },
        {
            "Id": 0,
            "number": 0,
            "numType": 0
        }
    ],
    "EAList": [
        {
            "type": 2,
            "timeStart": 30,
            "timeRemain": 10
        },
        {
            "type": 2,
            "timeStart": 50,
            "timeRemain": 10
        },
        {
            "type": 2,
            "timeStart": 70,
            "timeRemain": 10
        }
    ]
}