{
    "map": 7,
    "timePlay": 90,
    "star": {
        "first": 2000,
        "second": 3000,
        "third": 6000
    },
    "numberTypeMain": 6,
    "numberTypeMap": 0,
    "numberTypeRand": 32,
    "tileList": [
        {
            "Id": 0,
            "number": 0,
            "numType": 0
        },
        {
            "Id": 0,
            "number": 0,
            "numType": 0
        },
        {
            "Id": 0,
            "number": 0,
            "numType": 0
        },
        {
            "Id": 0,
            "number": 0,
            "numType": 0
        },
        {
            "Id": 0,
            "number": 0,
            "numType": 0
        },
        {
            "Id": 0,
            "number": 0,
            "numType": 0
        },
        {
            "Id": 0,
            "number": 0,
            "numType": 0
        },
        {
            "Id": 0,
            "number": 0,
            "numType": 0
        },
        {
            "Id": 0,
            "number": 0,
            "numType": 0
        },
        {
            "Id": 0,
            "number": 0,
            "numType": 0
        },
        {
            "Id": 15,
            "number": 0,
            "numType": 5
        },
        {
            "Id": 15,
            "number": 0,
            "numType": 6
        },
        {
            "Id": 4,
            "number": 0,
            "numType": 0
        },
        {
            "Id": -1,
            "number": 0,
            "numType": 0
        },
        {
            "Id": -1,
            "number": 0,
            "numType": 0
        },
        {
            "Id": -1,
            "number": 0,
            "numType": 0
        },
        {
            "Id": -1,
            "number": 0,
            "numType": 0
        },
        {
            "Id": 4,
            "number": 0,
            "numType": 0
        },
        {
            "Id": 15,
            "number": 0,
            "numType": 5
        },
        {
            "Id": 15,
            "number": 0,
            "numType": 6
        },
        {
            "Id": 15,
            "number": 0,
            "numType": 7
        },
        {
            "Id": 15,
            "number": 0,
            "numType": 7
        },
        {
            "Id": 4,
            "number": -1,
            "numType": 0
        },
        {
            "Id": -1,
            "number": 0,
            "numType": 2
        },
        {
            "Id": -1,
            "number": 0,
            "numType": 2
        },
        {
            "Id": -1,
            "number": 0,
            "numType": 3
        },
        {
            "Id": -1,
            "number": 0,
            "numType": 2
        },
        {
            "Id": 4,
            "number": -1,
            "numType": 0
        },
        {
            "Id": 15,
            "number": 0,
            "numType": 7
        },
        {
            "Id": 15,
            "number": 0,
            "numType": 7
        },
        {
            "Id": 15,
            "number": 0,
            "numType": 0
        },
        {
            "Id": 15,
            "number": 0,
            "numType": 7
        },
        {
            "Id": 4,
            "number": -1,
            "numType": 0
        },
        {
            "Id": 4,
            "number": -1,
            "numType": 0
        },
        {
            "Id": 4,
            "number": -1,
            "numType": 0
        },
        {
            "Id": 4,
            "number": -1,
            "numType": 0
        },
        {
            "Id": 4,
            "number": -1,
            "numType": 0
        },
        {
            "Id": 4,
            "number": -1,
            "numType": 0
        },
        {
            "Id": 15,
            "number": 0,
            "numType": 7
        },
        {
            "Id": 15,
            "number": 0,
            "numType": 2
        },
        {
            "Id": -1,
            "number": 0,
            "numType": 2
        },
        {
            "Id": 15,
            "number": 0,
            "numType": 7
        },
        {
            "Id": 4,
            "number": -1,
            "numType": 0
        },
        {
            "Id": 13,
            "number": 0,
            "numType": 0
        },
        {
            "Id": 4,
            "number": 0,
            "numType": 0
        },
        {
            "Id": 4,
            "number": 0,
            "numType": 0
        },
        {
            "Id": 13,
            "number": 0,
            "numType": 0
        },
        {
            "Id": 4,
            "number": -1,
            "numType": 0
        },
        {
            "Id": 15,
            "number": 0,
            "numType": 7
        },
        {
            "Id": -1,
            "number": 0,
            "numType": 2
        },
        {
            "Id": 0,
            "number": 0,
            "numType": 1
        },
        {
            "Id": 15,
            "number": 0,
            "numType": 7
        },
        {
            "Id": 4,
            "number": -1,
            "numType": 0
        },
        {
            "Id": 4,
            "number": -1,
            "numType": 0
        },
        {
            "Id": 4,
            "number": -1,
            "numType": 0
        },
        {
            "Id": 4,
            "number": -1,
            "numType": 0
        },
        {
            "Id": 4,
            "number": -1,
            "numType": 0
        },
        {
            "Id": 4,
            "number": -1,
            "numType": 0
        },
        {
            "Id": 15,
            "number": 0,
            "numType": 7
        },
        {
            "Id": 0,
            "number": 0,
            "numType": 1
        },
        {
            "Id": -1,
            "number": 0,
            "numType": 2
        },
        {
            "Id": 15,
            "number": 0,
            "numType": 7
        },
        {
            "Id": 4,
            "number": -1,
            "numType": 0
        },
        {
            "Id": 13,
            "number": 0,
            "numType": 0
        },
        {
            "Id": 4,
            "number": 0,
            "numType": 0
        },
        {
            "Id": 4,
            "number": 0,
            "numType": 0
        },
        {
            "Id": 13,
            "number": 0,
            "numType": 0
        },
        {
            "Id": 4,
            "number": -1,
            "numType": 0
        },
        {
            "Id": 15,
            "number": 0,
            "numType": 7
        },
        {
            "Id": -1,
            "number": 0,
            "numType": 2
        },
        {
            "Id": 15,
            "number": 0,
            "numType": 5
        },
        {
            "Id": 15,
            "number": 0,
            "numType": 7
        },
        {
            "Id": 4,
            "number": -1,
            "numType": 0
        },
        {
            "Id": 4,
            "number": -1,
            "numType": 0
        },
        {
            "Id": 4,
            "number": -1,
            "numType": 0
        },
        {
            "Id": 4,
            "number": -1,
            "numType": 0
        },
        {
            "Id": 4,
            "number": -1,
            "numType": 0
        },
        {
            "Id": 4,
            "number": -1,
            "numType": 0
        },
        {
            "Id": 15,
            "number": 0,
            "numType": 7
        },
        {
            "Id": 15,
            "number": 0,
            "numType": 6
        },
        {
            "Id": 15,
            "number": 0,
            "numType": 7
        },
        {
            "Id": 15,
            "number": 0,
            "numType": 7
        },
        {
            "Id": 4,
            "number": -1,
            "numType": 0
        },
        {
            "Id": 13,
            "number": 0,
            "numType": 0
        },
        {
            "Id": 4,
            "number": 0,
            "numType": 0
        },
        {
            "Id": 4,
            "number": 0,
            "numType": 0
        },
        {
            "Id": 13,
            "number": 0,
            "numType": 0
        },
        {
            "Id": 4,
            "number": -1,
            "numType": 0
        },
        {
            "Id": 15,
            "number": 0,
            "numType": 7
        },
        {
            "Id": 15,
            "number": 0,
            "numType": 7
        },
        {
            "Id": 15,
            "number": 0,
            "numType": 7
        },
        {
            "Id": 15,
            "number": 0,
            "numType": 7
        },
        {
            "Id": 4,
            "number": -1,
            "numType": 0
        },
        {
            "Id": 4,
            "number": -1,
            "numType": 0
        },
        {
            "Id": 4,
            "number": -1,
            "numType": 0
        },
        {
            "Id": 4,
            "number": -1,
            "numType": 0
        },
        {
            "Id": 4,
            "number": -1,
            "numType": 0
        },
        {
            "Id": 4,
            "number": -1,
            "numType": 0
        },
        {
            "Id": 15,
            "number": 0,
            "numType": 7
        },
        {
            "Id": 15,
            "number": 0,
            "numType": 7
        },
        {
            "Id": 15,
            "number": 0,
            "numType": 1
        },
        {
            "Id": 15,
            "number": 0,
            "numType": 2
        },
        {
            "Id": 4,
            "number": 0,
            "numType": 0
        },
        {
            "Id": -1,
            "number": 0,
            "numType": 0
        },
        {
            "Id": -1,
            "number": 0,
            "numType": 3
        },
        {
            "Id": -1,
            "number": 0,
            "numType": 4
        },
        {
            "Id": -1,
            "number": 0,
            "numType": 0
        },
        {
            "Id": 4,
            "number": 0,
            "numType": 0
        },
        {
            "Id": 15,
            "number": 0,
            "numType": 1
        },
        {
            "Id": 15,
            "number": 0,
            "numType": 2
        },
        {
            "Id": 0,
            "number": 0,
            "numType": 0
        },
        {
            "Id": 0,
            "number": 0,
            "numType": 0
        },
        {
            "Id": 0,
            "number": 0,
            "numType": 0
        },
        {
            "Id": 0,
            "number": 0,
            "numType": 0
        },
        {
            "Id": 0,
            "number": 0,
            "numType": 0
        },
        {
            "Id": 0,
            "number": 0,
            "numType": 0
        },
        {
            "Id": 0,
            "number": 0,
            "numType": 0
        },
        {
            "Id": 0,
            "number": 0,
            "numType": 0
        },
        {
            "Id": 0,
            "number": 0,
            "numType": 0
        },
        {
            "Id": 0,
            "number": 0,
            "numType": 0
        }
    ],
    "EAList": []
}