{
    "map": 1,
    "timePlay": 90,
    "star": {
        "first": 500,
        "second": 1000,
        "third": 2000
    },
    "numberTypeMain": 4,
    "numberTypeMap": 0,
    "numberTypeRand": 24,
    "tileList": [
        {
            "Id": -2,
            "number": 0,
            "numType": 0
        },
        {
            "Id": -2,
            "number": 0,
            "numType": 0
        },
        {
            "Id": -2,
            "number": 0,
            "numType": 0
        },
        {
            "Id": -2,
            "number": 0,
            "numType": 0
        },
        {
            "Id": -2,
            "number": 0,
            "numType": 0
        },
        {
            "Id": -2,
            "number": 0,
            "numType": 0
        },
        {
            "Id": -2,
            "number": 0,
            "numType": 0
        },
        {
            "Id": -2,
            "number": 0,
            "numType": 0
        },
        {
            "Id": -2,
            "number": 0,
            "numType": 0
        },
        {
            "Id": -2,
            "number": 0,
            "numType": 0
        },
        {
            "Id": -2,
            "number": 0,
            "numType": 0
        },
        {
            "Id": 0,
            "number": 0,
            "numType": 0
        },
        {
            "Id": 0,
            "number": 0,
            "numType": 0
        },
        {
            "Id": 0,
            "number": 0,
            "numType": 0
        },
        {
            "Id": 0,
            "number": 0,
            "numType": 0
        },
        {
            "Id": 0,
            "number": 0,
            "numType": 0
        },
        {
            "Id": 0,
            "number": 0,
            "numType": 0
        },
        {
            "Id": 0,
            "number": 0,
            "numType": 0
        },
        {
            "Id": 0,
            "number": 0,
            "numType": 0
        },
        {
            "Id": -2,
            "number": 0,
            "numType": 0
        },
        {
            "Id": -2,
            "number": 0,
            "numType": 0
        },
        {
            "Id": 0,
            "number": 0,
            "numType": 0
        },
        {
            "Id": 0,
            "number": 0,
            "numType": 0
        },
        {
            "Id": 0,
            "number": 0,
            "numType": 0
        },
        {
            "Id": 0,
            "number": 0,
            "numType": 0
        },
        {
            "Id": 0,
            "number": 0,
            "numType": 0
        },
        {
            "Id": 0,
            "number": 0,
            "numType": 0
        },
        {
            "Id": 0,
            "number": 0,
            "numType": 0
        },
        {
            "Id": 0,
            "number": 0,
            "numType": 0
        },
        {
            "Id": -2,
            "number": 0,
            "numType": 0
        },
        {
            "Id": -2,
            "number": 0,
            "numType": 0
        },
        {
            "Id": 0,
            "number": 0,
            "numType": 0
        },
        {
            "Id": 4,
            "number": -1,
            "numType": 0
        },
        {
            "Id": 4,
            "number": -1,
            "numType": 0
        },
        {
            "Id": 4,
            "number": -1,
            "numType": 0
        },
        {
            "Id": 4,
            "number": -1,
            "numType": 0
        },
        {
            "Id": 4,
            "number": -1,
            "numType": 0
        },
        {
            "Id": 4,
            "number": -1,
            "numType": 0
        },
        {
            "Id": 0,
            "number": 0,
            "numType": 0
        },
        {
            "Id": -2,
            "number": 0,
            "numType": 0
        },
        {
            "Id": -2,
            "number": 0,
            "numType": 0
        },
        {
            "Id": 0,
            "number": 0,
            "numType": 0
        },
        {
            "Id": 4,
            "number": -1,
            "numType": 0
        },
        {
            "Id": 4,
            "number": -1,
            "numType": 0
        },
        {
            "Id": 4,
            "number": -1,
            "numType": 0
        },
        {
            "Id": 4,
            "number": -1,
            "numType": 0
        },
        {
            "Id": 4,
            "number": -1,
            "numType": 0
        },
        {
            "Id": 4,
            "number": -1,
            "numType": 0
        },
        {
            "Id": 0,
            "number": 0,
            "numType": 0
        },
        {
            "Id": -2,
            "number": 0,
            "numType": 0
        },
        {
            "Id": -2,
            "number": 0,
            "numType": 0
        },
        {
            "Id": 0,
            "number": 0,
            "numType": 0
        },
        {
            "Id": 0,
            "number": 0,
            "numType": 1
        },
        {
            "Id": 0,
            "number": 0,
            "numType": 2
        },
        {
            "Id": 0,
            "number": 0,
            "numType": 2
        },
        {
            "Id": 0,
            "number": 0,
            "numType": 2
        },
        {
            "Id": 0,
            "number": 0,
            "numType": 2
        },
        {
            "Id": 0,
            "number": 0,
            "numType": 1
        },
        {
            "Id": 0,
            "number": 0,
            "numType": 0
        },
        {
            "Id": -2,
            "number": 0,
            "numType": 0
        },
        {
            "Id": -2,
            "number": 0,
            "numType": 0
        },
        {
            "Id": 0,
            "number": 0,
            "numType": 0
        },
        {
            "Id": 0,
            "number": 0,
            "numType": 1
        },
        {
            "Id": 0,
            "number": 0,
            "numType": 2
        },
        {
            "Id": 0,
            "number": 0,
            "numType": 2
        },
        {
            "Id": 0,
            "number": 0,
            "numType": 2
        },
        {
            "Id": 0,
            "number": 0,
            "numType": 2
        },
        {
            "Id": 0,
            "number": 0,
            "numType": 1
        },
        {
            "Id": 0,
            "number": 0,
            "numType": 0
        },
        {
            "Id": -2,
            "number": 0,
            "numType": 0
        },
        {
            "Id": -2,
            "number": 0,
            "numType": 0
        },
        {
            "Id": 0,
            "number": 0,
            "numType": 0
        },
        {
            "Id": 4,
            "number": -1,
            "numType": 0
        },
        {
            "Id": 4,
            "number": -1,
            "numType": 0
        },
        {
            "Id": 4,
            "number": -1,
            "numType": 0
        },
        {
            "Id": 4,
            "number": -1,
            "numType": 0
        },
        {
            "Id": 4,
            "number": -1,
            "numType": 0
        },
        {
            "Id": 4,
            "number": -1,
            "numType": 0
        },
        {
            "Id": 0,
            "number": 0,
            "numType": 0
        },
        {
            "Id": -2,
            "number": 0,
            "numType": 0
        },
        {
            "Id": -2,
            "number": 0,
            "numType": 0
        },
        {
            "Id": 0,
            "number": 0,
            "numType": 0
        },
        {
            "Id": 4,
            "number": -1,
            "numType": 0
        },
        {
            "Id": 4,
            "number": -1,
            "numType": 0
        },
        {
            "Id": 4,
            "number": -1,
            "numType": 0
        },
        {
            "Id": 4,
            "number": -1,
            "numType": 0
        },
        {
            "Id": 4,
            "number": -1,
            "numType": 0
        },
        {
            "Id": 4,
            "number": -1,
            "numType": 0
        },
        {
            "Id": 0,
            "number": 0,
            "numType": 0
        },
        {
            "Id": -2,
            "number": 0,
            "numType": 0
        },
        {
            "Id": -2,
            "number": 0,
            "numType": 0
        },
        {
            "Id": 0,
            "number": 0,
            "numType": 0
        },
        {
            "Id": 0,
            "number": 0,
            "numType": 0
        },
        {
            "Id": 0,
            "number": 0,
            "numType": 0
        },
        {
            "Id": 0,
            "number": 0,
            "numType": 0
        },
        {
            "Id": 0,
            "number": 0,
            "numType": 0
        },
        {
            "Id": 0,
            "number": 0,
            "numType": 0
        },
        {
            "Id": 0,
            "number": 0,
            "numType": 0
        },
        {
            "Id": 0,
            "number": 0,
            "numType": 0
        },
        {
            "Id": -2,
            "number": 0,
            "numType": 0
        },
        {
            "Id": -2,
            "number": 0,
            "numType": 0
        },
        {
            "Id": 0,
            "number": 0,
            "numType": 0
        },
        {
            "Id": 0,
            "number": 0,
            "numType": 0
        },
        {
            "Id": 0,
            "number": 0,
            "numType": 0
        },
        {
            "Id": 0,
            "number": 0,
            "numType": 0
        },
        {
            "Id": 0,
            "number": 0,
            "numType": 0
        },
        {
            "Id": 0,
            "number": 0,
            "numType": 0
        },
        {
            "Id": 0,
            "number": 0,
            "numType": 0
        },
        {
            "Id": 0,
            "number": 0,
            "numType": 0
        },
        {
            "Id": -2,
            "number": 0,
            "numType": 0
        },
        {
            "Id": -2,
            "number": 0,
            "numType": 0
        },
        {
            "Id": -2,
            "number": 0,
            "numType": 0
        },
        {
            "Id": -2,
            "number": 0,
            "numType": 0
        },
        {
            "Id": -2,
            "number": 0,
            "numType": 0
        },
        {
            "Id": -2,
            "number": 0,
            "numType": 0
        },
        {
            "Id": -2,
            "number": 0,
            "numType": 0
        },
        {
            "Id": -2,
            "number": 0,
            "numType": 0
        },
        {
            "Id": -2,
            "number": 0,
            "numType": 0
        },
        {
            "Id": -2,
            "number": 0,
            "numType": 0
        },
        {
            "Id": -2,
            "number": 0,
            "numType": 0
        }
    ],
    "EAList": []
}