# 3ds Max Wavefront OBJ Exporter v0.97b - (c)2007 guruware
# File Created: 24.09.2019 11:52:49

newmtl wire_088088225
	Ns 32
	d 1
	Tr 0
	Tf 1 1 1
	illum 2
	Ka 0.3451 0.3451 0.8824
	Kd 0.3451 0.3451 0.8824
	Ks 0.3500 0.3500 0.3500
