
Hint.png
size: 251,209
format: RGBA8888
filter: Linear,Linear
repeat: none
Hint
  rotate: false
  xy: 2, 2
  size: 214, 205
  orig: 214, 205
  offset: 0, 0
  index: -1
l
  rotate: false
  xy: 218, 107
  size: 31, 100
  orig: 31, 100
  offset: 0, 0
  index: -1
