%YAML 1.1
%TAG !u! tag:unity3d.com,2011:
--- !u!114 &11400000
MonoBehaviour:
  m_ObjectHideFlags: 0
  m_CorrespondingSourceObject: {fileID: 0}
  m_PrefabInstance: {fileID: 0}
  m_PrefabAsset: {fileID: 0}
  m_GameObject: {fileID: 0}
  m_Enabled: 1
  m_EditorHideFlags: 0
  m_Script: {fileID: 11500000, guid: a6b194f808b1af6499c93410e504af42, type: 3}
  m_Name: LevelCompleted_Atlas
  m_EditorClassIdentifier: 
  atlasFile: {fileID: 4900000, guid: 47c6b54bc2fac85418653d1bc6d4bb5e, type: 3}
  materials:
  - {fileID: 2100000, guid: 6d21fdb43d8e8a94482b949ec09f39dc, type: 2}
